…
```
## [1] 0
```

We can see here there are no NA values for either interval or date and there are 2304 NA values in steps. 
We will use a stretegy to fill up the NA values so that we do not get a biased summary of the data. We will fill the NA values with the mean of the number of steps for that particular date/interval.
Now we will investigate how many NA's are there for each date.


```r
activity %>% group_by(date) %>% summarize(TotalEntries=n(),NAs=sum(is.na(steps)))
```

```
## # A tibble: 61 x 3
##    date       TotalEntries   NAs
##    <fct>             <int> <int>
##  1 2012-10-01          288   288
##  2 2012-10-02          288     0
##  3 2012-10-03          288     0
##  4 2012-10-04          288     0
##  5 2012-10-05          288     0
##  6 2012-10-06          288     0
##  7 2012-10-07          288     0
##  8 2012-10-08          288   288
##  9 2012-10-09          288     0
## 10 2012-10-10          288     0
## # ... with 51 more rows
```

From these results we see that for certain dates all the entries for steps are NAa. So we can not impute these NA values with means from dates. Let's look at intervals.


```r
activity %>% group_by(interval) %>% summarize(TotalEntries=n(),NAs=sum(is.na(steps)))
```

```
## # A tibble: 288 x 3
##    interval TotalEntries   NAs
##       <int>        <int> <int>
##  1        0           61     8
##  2        5           61     8
##  3       10           61     8
##  4       15           61     8
##  5       20           61     8
##  6       25           61     8
##  7       30           61     8
##  8       35           61     8
##  9       40           61     8
## 10       45           61     8
## # ... with 278 more rows
```
…
